geom_hurricane_JH
…
Definicja danych, które będą testowane lub wykorzystywane do
wizualizacji:

Tworzymy wymaganą strukturę tabeli w zadaniu i sprawdzamy, które daty
mają odpowiednią ilość danych:

## # A tibble: 60 × 9
##    storm_id  date                latitude longitude wind_speed    ne    nw    se
##    <chr>     <dttm>                 <dbl>     <dbl> <chr>      <int> <int> <int>
##  1 KATRINA-… 2005-08-24 12:00:00     24.5     -76.5 34            60     0    60
##  2 KATRINA-… 2005-08-24 18:00:00     25.4     -76.9 34            60     0    60
##  3 KATRINA-… 2005-08-25 00:00:00     26       -77.7 34            60     0    60
##  4 KATRINA-… 2005-08-25 06:00:00     26.1     -78.4 34            60     0    60
##  5 KATRINA-… 2005-08-25 06:00:00     26.1     -78.4 50            15     0     0
##  6 KATRINA-… 2005-08-25 12:00:00     26.2     -79   34            60    50    60
##  7 KATRINA-… 2005-08-25 12:00:00     26.2     -79   50            20     0    20
##  8 KATRINA-… 2005-08-25 18:00:00     26.2     -79.6 34            70    60    70
##  9 KATRINA-… 2005-08-25 18:00:00     26.2     -79.6 50            25    20    25
## 10 KATRINA-… 2005-08-26 00:00:00     25.9     -80.3 34            70    40    70
## # ℹ 50 more rows
## # ℹ 1 more variable: sw <int>
…
